[
  {
    "value": "aspirin",
    "synonyms": [
      "aspirin"
    ]
  },
  {
    "value": "plavix",
    "synonyms": [
      "plavix"
    ]
  },
  {
    "value": "coumadin",
    "synonyms": [
      "coumadin"
    ]
  },
  {
    "value": "pradaxa",
    "synonyms": [
      "pradaxa",
      "xarelto",
      "eliquis",
      "savaysa"
    ]
  },
  {
    "value": "dipyridamole",
    "synonyms": [
      "Dipyridamole"
    ]
  },
  {
    "value": "aggrenox",
    "synonyms": [
      "Aggrenox"
    ]
  },
  {
    "value": "lovenox",
    "synonyms": [
      "Lovenox"
    ]
  }
]