[
  {
    "value": "long",
    "synonyms": [
      "long"
    ]
  },
  {
    "value": "start",
    "synonyms": [
      "start",
      "begin",
      "happen",
      "restart",
      "resume"
    ]
  },
  {
    "value": "expire",
    "synonyms": [
      "expire",
      "last"
    ]
  }
]