[
  {
    "id": "edd1769d-b5c7-4246-9a16-f963c081d339",
    "data": [
      {
        "text": "when should i stop my ",
        "userDefined": false
      },
      {
        "text": "blood thinner",
        "alias": "medication",
        "meta": "@medication",
        "userDefined": false
      }
    ],
    "isTemplate": false,
    "count": 0
  },
  {
    "id": "6a6a120c-dc50-4f2a-a707-69e049d41773",
    "data": [
      {
        "text": "what ",
        "userDefined": false
      },
      {
        "text": "blood thinners",
        "alias": "medication",
        "meta": "@medication",
        "userDefined": false
      },
      {
        "text": " should i avoid",
        "userDefined": false
      }
    ],
    "isTemplate": false,
    "count": 0
  },
  {
    "id": "1fbd6b37-9c67-4b5f-bf9e-7746ca5bee66",
    "data": [
      {
        "text": "what ",
        "userDefined": false
      },
      {
        "text": "blood thinners",
        "alias": "medication",
        "meta": "@medication",
        "userDefined": false
      },
      {
        "text": " should i stop",
        "userDefined": false
      }
    ],
    "isTemplate": false,
    "count": 0
  },
  {
    "id": "fbd33be2-83a7-49e7-bed4-b9d276379259",
    "data": [
      {
        "text": "give me instructions for ",
        "userDefined": false
      },
      {
        "text": "blood thinners",
        "alias": "medication",
        "meta": "@medication",
        "userDefined": false
      }
    ],
    "isTemplate": false,
    "count": 0
  }
]