{
  "id": "eab9ca5d-af35-4387-9a1d-cfa19a9b48c2",
  "parentId": "8c3500fb-bd3d-4556-9421-a39ea459fb5a",
  "rootParentId": "8c3500fb-bd3d-4556-9421-a39ea459fb5a",
  "name": "BloodThinnerVisual - custom",
  "auto": true,
  "contexts": [
    "BloodThinnerVisual-followup"
  ],
  "responses": [
    {
      "resetContexts": false,
      "action": "BloodThinnerVisual.BloodThinnerVisual-custom",
      "affectedContexts": [],
      "parameters": [
        {
          "id": "9d2b95b9-dc33-4727-83b2-7b938982f2c7",
          "required": false,
          "dataType": "@bloodThinner",
          "name": "bloodThinner",
          "value": "$bloodThinner",
          "isList": false
        }
      ],
      "messages": [
        {
          "type": 0,
          "lang": "en",
          "speech": []
        }
      ],
      "defaultResponsePlatforms": {},
      "speech": []
    }
  ],
  "priority": 500000,
  "webhookUsed": true,
  "webhookForSlotFilling": false,
  "lastUpdate": 1508189124811,
  "fallbackIntent": false,
  "events": []
}