{
  "id": "6f96262b-2911-4ecf-9782-92931e230e6b",
  "name": "BowelPrepDone",
  "auto": true,
  "contexts": [],
  "responses": [
    {
      "resetContexts": false,
      "affectedContexts": [],
      "parameters": [
        {
          "id": "93887304-3fa9-40e0-9fcc-7bd3d83b4fee",
          "required": false,
          "dataType": "@finish",
          "name": "finish",
          "value": "$finish",
          "isList": false
        },
        {
          "id": "56bac8fa-e3c5-48fd-9c02-12f89fba1af7",
          "required": false,
          "dataType": "@laxative_type",
          "name": "laxative_type",
          "value": "$laxative_type",
          "isList": false
        }
      ],
      "messages": [
        {
          "type": 0,
          "lang": "en",
          "speech": "A good test to know when you are fully cleaned out is when your stool is completely clear yellow liquid and you can see through it.  It should have the same appearance as urine.   A small amount of brown particles is okay"
        }
      ],
      "defaultResponsePlatforms": {},
      "speech": []
    }
  ],
  "priority": 500000,
  "webhookUsed": false,
  "webhookForSlotFilling": false,
  "fallbackIntent": false,
  "events": []
}