[
  {
    "id": "6f62edf3-6c96-4905-9674-3cf6d3181167",
    "data": [
      {
        "text": "How will I know if the ",
        "userDefined": false
      },
      {
        "text": "laxative",
        "alias": "laxative_type",
        "meta": "@laxative_type",
        "userDefined": false
      },
      {
        "text": " is working",
        "userDefined": false
      }
    ],
    "isTemplate": false,
    "count": 0
  },
  {
    "id": "a2d48b75-7fc3-4a4f-811d-fa62819db1b5",
    "data": [
      {
        "text": "How will I know when I am clean",
        "userDefined": false
      }
    ],
    "isTemplate": false,
    "count": 0
  },
  {
    "id": "6f55abe2-8511-4cd8-bb94-0b21316e3212",
    "data": [
      {
        "text": "How will I know when I am cleaned out",
        "userDefined": false
      }
    ],
    "isTemplate": false,
    "count": 0
  },
  {
    "id": "21afa6f9-94e0-46ea-81a0-7e83567f1db9",
    "data": [
      {
        "text": "How will I know when the ",
        "userDefined": false
      },
      {
        "text": "bowel preparation",
        "alias": "laxative_type",
        "meta": "@laxative_type",
        "userDefined": true
      },
      {
        "text": " is ",
        "userDefined": false
      },
      {
        "text": "done",
        "alias": "finish",
        "meta": "@finish",
        "userDefined": false
      }
    ],
    "isTemplate": false,
    "count": 0
  }
]