{
  "id": "a1678691-4977-4450-bc6f-7fda2367cd0e",
  "name": "colonoscopy.endConversation",
  "auto": true,
  "contexts": [],
  "responses": [
    {
      "resetContexts": false,
      "affectedContexts": [],
      "parameters": [],
      "messages": [
        {
          "type": 0,
          "lang": "en",
          "speech": [
            "Goodbye",
            "Until next time",
            "Have a good day"
          ]
        }
      ],
      "defaultResponsePlatforms": {},
      "speech": []
    }
  ],
  "priority": 500000,
  "webhookUsed": false,
  "webhookForSlotFilling": false,
  "lastUpdate": 1550818662,
  "fallbackIntent": false,
  "events": []
}