{
  "id": "9020466e-95dd-4b28-ae1c-34a35c840c59",
  "name": "Cost",
  "auto": true,
  "contexts": [],
  "responses": [
    {
      "resetContexts": false,
      "affectedContexts": [],
      "parameters": [
        {
          "id": "0c6dd3d1-2f39-4541-947b-e78316878116",
          "required": false,
          "dataType": "@cost",
          "name": "cost",
          "value": "$cost",
          "isList": false
        }
      ],
      "messages": [
        {
          "type": 0,
          "lang": "en",
          "speech": "The cost for the procedure will vary from member to member, please contact member or financial services for further information"
        }
      ],
      "defaultResponsePlatforms": {},
      "speech": []
    }
  ],
  "priority": 500000,
  "webhookUsed": false,
  "webhookForSlotFilling": false,
  "lastUpdate": 1551829703,
  "fallbackIntent": false,
  "events": []
}