{
  "id": "72f8c467-b030-45a6-b2c3-ab47ca1a1be7",
  "name": "LaxativeMisc",
  "auto": true,
  "contexts": [],
  "responses": [
    {
      "resetContexts": false,
      "affectedContexts": [],
      "parameters": [
        {
          "id": "78e0babb-706c-4231-9567-3c455645cb65",
          "required": false,
          "dataType": "@fridge",
          "name": "fridge",
          "value": "$fridge",
          "isList": false
        },
        {
          "id": "26c8c175-9bb7-4857-90a0-24a33e8e61b8",
          "required": false,
          "dataType": "@finish",
          "name": "finish",
          "value": "$finish",
          "isList": false
        },
        {
          "id": "6b428314-7bc8-4d70-b4f2-367db760d1f9",
          "required": false,
          "dataType": "@laxative_type",
          "name": "laxative_type",
          "value": "$laxative_type",
          "isList": false
        },
        {
          "id": "42f34467-918b-4035-84aa-97f1c9fb4d72",
          "required": false,
          "dataType": "@duration",
          "name": "duration",
          "value": "$duration",
          "isList": false
        },
        {
          "id": "6d94742e-83f5-462a-ab93-78b4fc491821",
          "required": false,
          "dataType": "@mix",
          "name": "mix",
          "value": "$mix",
          "isList": false
        }
      ],
      "messages": [
        {
          "type": 0,
          "lang": "en",
          "speech": []
        }
      ],
      "defaultResponsePlatforms": {},
      "speech": []
    }
  ],
  "priority": 500000,
  "webhookUsed": true,
  "webhookForSlotFilling": false,
  "lastUpdate": 1551907050,
  "fallbackIntent": false,
  "events": []
}