[
  {
    "id": "6204fa94-2c4e-479f-adb0-c0525f8b96cc",
    "data": [
      {
        "text": "example",
        "userDefined": false
      }
    ],
    "isTemplate": false,
    "count": 0
  },
  {
    "id": "57a39d88-9d94-4182-8032-8b84db6d5410",
    "data": [
      {
        "text": "give me an example",
        "userDefined": false
      }
    ],
    "isTemplate": false,
    "count": 0
  },
  {
    "id": "34fdae1d-c528-4cf0-ac53-05614e8048b7",
    "data": [
      {
        "text": "give me a sample",
        "userDefined": false
      }
    ],
    "isTemplate": false,
    "count": 0
  },
  {
    "id": "aa15e5b0-ef20-4a5a-b7d4-25c05e4fa8ae",
    "data": [
      {
        "text": "give me a sample of a low residue diet",
        "userDefined": false
      }
    ],
    "isTemplate": false,
    "count": 0
  },
  {
    "id": "77fc7374-201a-408d-b801-0d95675c1792",
    "data": [
      {
        "text": "give me a sample of a low fiber diet",
        "userDefined": false
      }
    ],
    "isTemplate": false,
    "count": 0
  }
]