{
  "id": "8adb06ea-22e5-4960-8e42-b659c6749f6f",
  "name": "Medication",
  "auto": true,
  "contexts": [],
  "responses": [
    {
      "resetContexts": false,
      "affectedContexts": [],
      "parameters": [
        {
          "id": "fdedb36c-a322-4909-aac3-099bcac2224a",
          "required": false,
          "dataType": "@medication",
          "name": "medication",
          "value": "$medication",
          "isList": false
        },
        {
          "id": "f0793066-3a9e-417a-8481-f283dc34cea3",
          "required": false,
          "dataType": "@procedure",
          "name": "procedure",
          "value": "$procedure",
          "isList": false
        },
        {
          "id": "cffec0e2-9f02-483f-9175-023f6688b415",
          "required": false,
          "dataType": "@duration",
          "name": "duration",
          "value": "$duration",
          "isList": false
        },
        {
          "id": "6c7fa7f1-e44d-41ce-acaa-69c63f668c8a",
          "required": false,
          "dataType": "@medication",
          "name": "medication1",
          "value": "$medication1",
          "isList": false
        },
        {
          "id": "f87abc25-e5d2-475a-b0dc-6792f42b4ff0",
          "required": true,
          "dataType": "@medication",
          "name": "medication2",
          "value": "$medication2",
          "prompts": [
            {
              "lang": "en",
              "value": "Is $medication2 a medication?"
            }
          ],
          "isList": false
        }
      ],
      "messages": [
        {
          "type": 0,
          "lang": "en",
          "speech": []
        }
      ],
      "defaultResponsePlatforms": {},
      "speech": []
    }
  ],
  "priority": 500000,
  "webhookUsed": true,
  "webhookForSlotFilling": true,
  "lastUpdate": 1551917239,
  "fallbackIntent": false,
  "events": []
}