[
  {
    "id": "66281b7b-ba0f-4c18-8ae2-44b34c43ded0",
    "data": [
      {
        "text": "What medications should I stop before the ",
        "userDefined": false
      },
      {
        "text": "procedure",
        "alias": "procedure",
        "meta": "@procedure",
        "userDefined": false
      }
    ],
    "isTemplate": false,
    "count": 0
  }
]