{
  "id": "fbceda4d-71e4-4998-8253-f6e590875b3a",
  "name": "Pain",
  "auto": true,
  "contexts": [],
  "responses": [
    {
      "resetContexts": false,
      "affectedContexts": [],
      "parameters": [],
      "messages": [
        {
          "type": 0,
          "lang": "en",
          "speech": "Tylenol is safe to use up until your procedure and is the recommended medication for pain if needed within 7 days of your procedure"
        }
      ],
      "defaultResponsePlatforms": {},
      "speech": []
    }
  ],
  "priority": 500000,
  "webhookUsed": false,
  "webhookForSlotFilling": false,
  "fallbackIntent": false,
  "events": []
}