[
  {
    "id": "ce162e80-c167-4513-b5c0-9ccbd2ac7d27",
    "data": [
      {
        "text": "When can I ",
        "userDefined": false
      },
      {
        "text": "restart",
        "alias": "duration",
        "meta": "@duration",
        "userDefined": false
      },
      {
        "text": " my ",
        "userDefined": false
      },
      {
        "text": "blood thinner",
        "alias": "medication",
        "meta": "@medication",
        "userDefined": false
      },
      {
        "text": " after the ",
        "userDefined": false
      },
      {
        "text": "procedure",
        "alias": "procedure",
        "meta": "@procedure",
        "userDefined": false
      }
    ],
    "isTemplate": false,
    "count": 0
  },
  {
    "id": "4dcdc5f3-7638-49a9-a2db-c20bcdd120a9",
    "data": [
      {
        "text": "When can I ",
        "userDefined": false
      },
      {
        "text": "restart",
        "meta": "@sys.ignore",
        "userDefined": false
      },
      {
        "text": " my ",
        "userDefined": false
      },
      {
        "text": "blood thinner",
        "alias": "bloodThinner",
        "meta": "@bloodThinner",
        "userDefined": true
      }
    ],
    "isTemplate": false,
    "count": 0,
    "updated": 1551917316
  }
]