{
  "id": "bbaf83aa-6568-4355-b4b1-78dc553ee9d6",
  "name": "ValidateLiquids",
  "auto": true,
  "contexts": [],
  "responses": [
    {
      "resetContexts": false,
      "affectedContexts": [],
      "parameters": [
        {
          "id": "d73a011b-fff2-423c-adf6-beac738ea3e1",
          "required": false,
          "dataType": "@liquids",
          "name": "liquids",
          "value": "$liquids",
          "isList": false
        },
        {
          "id": "b5e2aeda-4570-4863-89ed-336d2d93dadf",
          "dataType": "@laxative_type",
          "name": "laxative_type",
          "value": "$laxative_type",
          "isList": false
        }
      ],
      "messages": [
        {
          "type": 0,
          "lang": "en",
          "speech": []
        }
      ],
      "defaultResponsePlatforms": {},
      "speech": []
    }
  ],
  "priority": 500000,
  "webhookUsed": true,
  "webhookForSlotFilling": true,
  "lastUpdate": 1551905892,
  "fallbackIntent": false,
  "events": []
}