[
  {
    "id": "075a0f3c-6ea0-49a9-9cb7-fb1d4300d236",
    "data": [
      {
        "text": "what can i ",
        "userDefined": false
      },
      {
        "text": "eat",
        "meta": "@sys.ignore",
        "userDefined": false
      },
      {
        "text": " after the procedure",
        "userDefined": false
      }
    ],
    "isTemplate": false,
    "count": 0,
    "updated": 1551907375
  },
  {
    "id": "c098af3f-3f11-4e36-a672-d75df6b88fea",
    "data": [
      {
        "text": "What can I ",
        "userDefined": false
      },
      {
        "text": "eat",
        "meta": "@sys.ignore",
        "userDefined": false
      },
      {
        "text": " after the colonoscopy",
        "userDefined": false
      }
    ],
    "isTemplate": false,
    "count": 0,
    "updated": 1551907375
  }
]