{
  "id": "ba0bbd9a-31cf-4476-8fa9-4d1ca1c8e3fd",
  "name": "WhatIsBowelPrep",
  "auto": true,
  "contexts": [],
  "responses": [
    {
      "resetContexts": false,
      "affectedContexts": [],
      "parameters": [],
      "messages": [
        {
          "type": 0,
          "lang": "en",
          "speech": "A bowel preparation is a type of laxative that will help to clean you out inside and get you ready for the colonoscopy.  There are several types of bowel preparation that are used, including miralax or gavilyte, and your doctor will chose the one that is best for you.  In general, you will drink half of the bowel prep the night before the procedure, and the other half in the early morning of the day you are having the colonoscopy.  For more specific questions about each laxative or if you would like to know how to prepare for a colonoscopy, say “How do I prepare for a colonoscopy?” or “how do I use miralax? Or “how do I use gavilyte?”"
        }
      ],
      "defaultResponsePlatforms": {},
      "speech": []
    }
  ],
  "priority": 500000,
  "webhookUsed": false,
  "webhookForSlotFilling": false,
  "lastUpdate": 1551210767,
  "fallbackIntent": false,
  "events": []
}