[
  {
    "id": "43d5c209-fc95-47f7-8a19-51ccd55d19c6",
    "data": [
      {
        "text": " What is a clear liquid diet?",
        "userDefined": false
      }
    ],
    "isTemplate": false,
    "count": 0,
    "updated": 1550013439
  },
  {
    "id": "83c162ae-4a77-42fc-99af-14788f261187",
    "data": [
      {
        "text": "What is a clear liquid?",
        "userDefined": false
      }
    ],
    "isTemplate": false,
    "count": 1,
    "updated": 1550013372
  }
]