{
  "id": "e84fa228-3ec8-4fac-aa06-2ae0c3353a74",
  "name": "WillTheProcedureHurt",
  "auto": true,
  "contexts": [],
  "responses": [
    {
      "resetContexts": false,
      "affectedContexts": [],
      "parameters": [
        {
          "id": "76e4b690-f1d5-4aed-a362-2bb0feec6175",
          "required": false,
          "dataType": "@procedure",
          "name": "procedure",
          "value": "$procedure",
          "isList": false
        }
      ],
      "messages": [
        {
          "type": 0,
          "lang": "en",
          "speech": "You will be receiving some medication to help keep you comfortable for this procedure.  Sometimes patients will feel some discomfort when the doctor is going around colon twists or turns or when there is a lot of air inside the colon.  You should help by trying to pass gas during the procedure."
        }
      ],
      "defaultResponsePlatforms": {},
      "speech": []
    }
  ],
  "priority": 500000,
  "webhookUsed": false,
  "webhookForSlotFilling": false,
  "fallbackIntent": false,
  "events": []
}